[
  {
    "LocusId": "XYLT1",
    "LocusStructure": "(TCC)*(GCC)*",
    "ReferenceRegion": ["XYLT1:1037-1046", "XYLT1:1046-1091"],
    "VariantType": ["Repeat", "RareRepeat"],
    "OfftargetRegions": [
      "GCC:0-600"
    ]
  }
]
